('/home/desktop/temp/target/PyInstaller/CommunityUs/CommunityUs',
 True,
 False,
 True,
 None,
 None,
 False,
 False,
 None,
 True,
 'CommunityUs.pkg',
 [('PYZ-00.pyz',
   '/home/desktop/temp/target/PyInstaller/CommunityUs/PYZ-00.pyz',
   'PYZ'),
  ('_struct',
   '/home/desktop/opt/python-3.6.8/lib/python3.6/lib-dynload/_struct.cpython-36m-x86_64-linux-gnu.so',
   'EXTENSION'),
  ('zlib',
   '/home/desktop/opt/python-3.6.8/lib/python3.6/lib-dynload/zlib.cpython-36m-x86_64-linux-gnu.so',
   'EXTENSION'),
  ('struct',
   '/home/desktop/opt/python-3.6.8/lib/python3.6/struct.pyo',
   'PYMODULE'),
  ('pyimod01_os_path',
   '/home/desktop/temp/venv/lib/python3.6/site-packages/PyInstaller/loader/pyimod01_os_path.pyc',
   'PYMODULE'),
  ('pyimod02_archive',
   '/home/desktop/temp/venv/lib/python3.6/site-packages/PyInstaller/loader/pyimod02_archive.pyc',
   'PYMODULE'),
  ('pyimod03_importers',
   '/home/desktop/temp/venv/lib/python3.6/site-packages/PyInstaller/loader/pyimod03_importers.pyc',
   'PYMODULE'),
  ('pyiboot01_bootstrap',
   '/home/desktop/temp/venv/lib/python3.6/site-packages/PyInstaller/loader/pyiboot01_bootstrap.py',
   'PYSOURCE'),
  ('fbs_pyinstaller_hook',
   '/tmp/tmpv8pz3tga/fbs_pyinstaller_hook.py',
   'PYSOURCE'),
  ('pyi_rth_pyside2webengine',
   '/home/desktop/temp/venv/lib/python3.6/site-packages/PyInstaller/loader/rthooks/pyi_rth_pyside2webengine.py',
   'PYSOURCE'),
  ('pyi_rth_pyside2',
   '/home/desktop/temp/venv/lib/python3.6/site-packages/PyInstaller/loader/rthooks/pyi_rth_pyside2.py',
   'PYSOURCE'),
  ('main', '/home/desktop/temp/src/main/python/main.py', 'PYSOURCE')],
 [],
 False,
 False,
 1568064538,
 [('run',
   '/home/desktop/temp/venv/lib/python3.6/site-packages/PyInstaller/bootloader/Linux-64bit/run',
   'EXECUTABLE')])
